mar17/squarei2s.vcd
$date
	Thu Mar 16 21:55:01 2017
$end
$version
	Icarus Verilog
$end
$timescale
	1s
$end
$scope module test $end
$var wire 1 ! sdin $end
$var wire 1 " sclk $end
$var wire 1 # mclk $end
$var wire 1 $ lrclk $end
$var reg 1 % clk $end
$var reg 16 & period [15:0] $end
$var reg 1 ' reset $end
$scope module top $end
$var wire 1 % clk $end
$var wire 16 ( period [15:0] $end
$var wire 1 ' reset $end
$var wire 1 ) state $end
$var wire 1 ! sdin $end
$var wire 1 " sclk $end
$var wire 1 # mclk $end
$var wire 1 $ lrclk $end
$var reg 16 * value [15:0] $end
$scope module c1 $end
$var wire 1 % clk $end
$var wire 16 + in [15:0] $end
$var wire 1 ' reset $end
$var reg 7 , i [6:0] $end
$var reg 1 $ lrclk $end
$var reg 1 # mclk $end
$var reg 1 " sclk $end
$var reg 1 ! sdin $end
$var reg 16 - value [15:0] $end
$upscope $end
$scope module sq1 $end
$var wire 1 $ clk $end
$var wire 16 . divideby [15:0] $end
$var wire 1 ' reset $end
$var reg 1 ) clkout $end
$var reg 16 / count [15:0] $end
$upscope $end
$upscope $end
$upscope $end
$enddefinitions $end
#0
$dumpvars
b0 /
b10 .
b0 -
b0 ,
b111111111111111 +
b111111111111111 *
0)
b10 (
1'
b10 &
0%
0$
0#
0"
0!
$end
#1
b1 ,
1#
1%
#2
0#
0%
#3
b10 ,
1#
1%
#4
0#
0%
#5
b11 ,
1#
1%
#6
0#
0%
#7
b100 ,
1#
1%
#8
0#
0%
#9
b101 ,
1#
1%
#10
0#
0%
#11
b110 ,
1#
1%
#12
0#
0%
#13
b111 ,
1#
1%
#14
0#
0%
#15
b1000 ,
1#
1%
#16
0#
0%
#17
b1001 ,
1#
1%
#18
0#
0%
#19
b1010 ,
1#
1%
#20
0#
0%
#21
b1011 ,
1#
1%
#22
0#
0%
#23
b1100 ,
1#
1%
#24
0#
0%
#25
b1101 ,
1#
1%
#26
0#
0%
#27
b1110 ,
1#
1%
#28
0#
0%
#29
b1111 ,
1#
1%
#30
0#
0%
#31
b10000 ,
1#
1%
#32
0#
0%
#33
b10001 ,
1#
1%
#34
0#
0%
#35
b10010 ,
1#
1%
#36
0#
0%
#37
b10011 ,
1#
1%
#38
0#
0%
#39
b10100 ,
1#
1%
#40
0#
0%
#41
b10101 ,
1#
1%
#42
0#
0%
#43
b10110 ,
1#
1%
#44
0#
0%
#45
b10111 ,
1#
1%
#46
0#
0%
#47
b11000 ,
1#
1%
#48
0#
0%
#49
b11001 ,
1#
1%
#50
0#
0%
#51
b11010 ,
1#
1%
#52
0#
0%
#53
b11011 ,
1#
1%
#54
0#
0%
#55
b11100 ,
1#
1%
#56
0#
0%
#57
b11101 ,
1#
1%
#58
0#
0%
#59
b11110 ,
1#
1%
#60
0#
0%
#61
b11111 ,
1#
1%
#62
0#
0%
#63
b100000 ,
1#
1%
#64
0#
0%
#65
b100001 ,
1#
1%
#66
0#
0%
#67
b100010 ,
1#
1%
#68
0#
0%
#69
b100011 ,
1#
1%
#70
0#
0%
#71
b100100 ,
1#
1%
#72
0#
0%
#73
b100101 ,
1#
1%
#74
0#
0%
#75
b100110 ,
1#
1%
#76
0#
0%
#77
b100111 ,
1#
1%
#78
0#
0%
#79
b101000 ,
1#
1%
#80
0#
0%
#81
b101001 ,
1#
1%
#82
0#
0%
#83
b101010 ,
1#
1%
#84
0#
0%
#85
b101011 ,
1#
1%
#86
0#
0%
#87
b101100 ,
1#
1%
#88
0#
0%
#89
b101101 ,
1#
1%
#90
0#
0%
#91
b101110 ,
1#
1%
#92
0#
0%
#93
b101111 ,
1#
1%
#94
0#
0%
#95
b110000 ,
1#
1%
#96
0#
0%
#97
b110001 ,
1#
1%
#98
0#
0%
#99
b110010 ,
1#
1%
#100
0#
0%
#101
b110011 ,
1#
1%
#102
0#
0%
#103
b110100 ,
1#
1%
#104
0#
0%
#105
b110101 ,
1#
1%
#106
0#
0%
#107
b110110 ,
1#
1%
#108
0#
0%
#109
b110111 ,
1#
1%
#110
0#
0%
#111
b111000 ,
1#
1%
#112
0#
0%
#113
b111001 ,
1#
1%
#114
0#
0%
#115
b111010 ,
1#
1%
#116
0#
0%
#117
b111011 ,
1#
1%
#118
0#
0%
#119
b111100 ,
1#
1%
#120
0#
0%
#121
b111101 ,
1#
1%
#122
0#
0%
#123
b111110 ,
1#
1%
#124
0#
0%
#125
b111111 ,
1#
1%
#126
0#
0%
#127
b1000000 ,
1#
1%
#128
0#
0%
#129
b1000001 ,
1#
1%
#130
0#
0%
#131
b1000010 ,
1#
1%
#132
0#
0%
#133
b1000011 ,
1#
1%
#134
0#
0%
#135
b1000100 ,
1#
1%
#136
0#
0%
#137
b1000101 ,
1#
1%
#138
0#
0%
#139
b1000110 ,
1#
1%
#140
0#
0%
#141
b1000111 ,
1#
1%
#142
0#
0%
#143
b1001000 ,
1#
1%
#144
0#
0%
#145
b1001001 ,
1#
1%
#146
0#
0%
#147
b1001010 ,
1#
1%
#148
0#
0%
#149
b1001011 ,
1#
1%
#150
0#
0%
#151
b1001100 ,
1#
1%
#152
0#
0%
#153
b1001101 ,
1#
1%
#154
0#
0%
#155
b1001110 ,
1#
1%
#156
0#
0%
#157
b1001111 ,
1#
1%
#158
0#
0%
#159
b1010000 ,
1#
1%
#160
0#
0%
#161
b1010001 ,
1#
1%
#162
0#
0%
#163
b1010010 ,
1#
1%
#164
0#
0%
#165
b1010011 ,
1#
1%
#166
0#
0%
#167
b1010100 ,
1#
1%
#168
0#
0%
#169
b1010101 ,
1#
1%
#170
0#
0%
#171
b1010110 ,
1#
1%
#172
0#
0%
#173
b1010111 ,
1#
1%
#174
0#
0%
#175
b1011000 ,
1#
1%
#176
0#
0%
#177
b1011001 ,
1#
1%
#178
0#
0%
#179
b1011010 ,
1#
1%
#180
0#
0%
#181
b1011011 ,
1#
1%
#182
0#
0%
#183
b1011100 ,
1#
1%
#184
0#
0%
#185
b1011101 ,
1#
1%
#186
0#
0%
#187
b1011110 ,
1#
1%
#188
0#
0%
#189
b1011111 ,
1#
1%
#190
0#
0%
#191
b1100000 ,
1#
1%
#192
0#
0%
#193
b1100001 ,
1#
1%
#194
0#
0%
#195
b1100010 ,
1#
1%
#196
0#
0%
#197
b1100011 ,
1#
1%
#198
0#
0%
#199
b1100100 ,
1#
1%
#200
0#
0%
#201
b1100101 ,
1#
1%
#202
0#
0%
#203
b1100110 ,
1#
1%
#204
0#
0%
#205
b1100111 ,
1#
1%
#206
0#
0%
#207
b1101000 ,
1#
1%
#208
0#
0%
#209
b1101001 ,
1#
1%
#210
0#
0%
#211
b1101010 ,
1#
1%
#212
0#
0%
#213
b1101011 ,
1#
1%
#214
0#
0%
#215
b1101100 ,
1#
1%
#216
0#
0%
#217
b1101101 ,
1#
1%
#218
0#
0%
#219
b1101110 ,
1#
1%
#220
0#
0%
#221
b1101111 ,
1#
1%
#222
0#
0%
#223
b1110000 ,
1#
1%
#224
0#
0%
#225
b1110001 ,
1#
1%
#226
0#
0%
#227
b1110010 ,
1#
1%
#228
0#
0%
#229
b1110011 ,
1#
1%
#230
0#
0%
#231
b1110100 ,
1#
1%
#232
0#
0%
#233
b1110101 ,
1#
1%
#234
0#
0%
#235
b1110110 ,
1#
1%
#236
0#
0%
#237
b1110111 ,
1#
1%
#238
0#
0%
#239
b1111000 ,
1#
1%
#240
0#
0%
#241
b1111001 ,
1#
1%
#242
0#
0%
#243
b1111010 ,
1#
1%
#244
0#
0%
#245
b1111011 ,
1#
1%
#246
0#
0%
#247
b1111100 ,
1#
1%
#248
0#
0%
#249
b1111101 ,
1#
1%
#250
0#
0%
#251
b1111110 ,
1#
1%
#252
0#
0%
#253
b1111111 ,
1#
1%
#254
0#
0%
#255
b0 ,
1$
1#
1%
#256
0#
0%
#257
b1 ,
1#
1%
#258
0#
0%
#259
b10 ,
1#
1%
#260
0#
0%
#261
b11 ,
1#
1%
#262
0#
0%
#263
b100 ,
1#
1%
#264
0#
0%
#265
b101 ,
1#
1%
#266
0#
0%
#267
b110 ,
1#
1%
#268
0#
0%
#269
b111 ,
1#
1%
#270
0#
0%
#271
b1000 ,
1#
1%
#272
0#
0%
#273
b1001 ,
1#
1%
#274
0#
0%
#275
b1010 ,
1#
1%
#276
0#
0%
#277
b1011 ,
1#
1%
#278
0#
0%
#279
b1100 ,
1#
1%
#280
0#
0%
#281
b1101 ,
1#
1%
#282
0#
0%
#283
b1110 ,
1#
1%
#284
0#
0%
#285
b1111 ,
1#
1%
#286
0#
0%
#287
b10000 ,
1#
1%
#288
0#
0%
#289
b10001 ,
1#
1%
#290
0#
0%
#291
b10010 ,
1#
1%
#292
0#
0%
#293
b10011 ,
1#
1%
#294
0#
0%
#295
b10100 ,
1#
1%
#296
0#
0%
#297
b10101 ,
1#
1%
#298
0#
0%
#299
b10110 ,
1#
1%
#300
0#
0%
#301
b10111 ,
1#
1%
#302
0#
0%
#303
b11000 ,
1#
1%
#304
0#
0%
#305
b11001 ,
1#
1%
#306
0#
0%
#307
b11010 ,
1#
1%
#308
0#
0%
#309
b11011 ,
1#
1%
#310
0#
0%
#311
b11100 ,
1#
1%
#312
0#
0%
#313
b11101 ,
1#
1%
#314
0#
0%
#315
b11110 ,
1#
1%
#316
0#
0%
#317
b11111 ,
1#
1%
#318
0#
0%
#319
b100000 ,
1#
1%
#320
0#
0%
#321
b100001 ,
1#
1%
#322
0#
0%
#323
b100010 ,
1#
1%
#324
0#
0%
#325
b100011 ,
1#
1%
#326
0#
0%
#327
b100100 ,
1#
1%
#328
0#
0%
#329
b100101 ,
1#
1%
#330
0#
0%
#331
b100110 ,
1#
1%
#332
0#
0%
#333
b100111 ,
1#
1%
#334
0#
0%
#335
b101000 ,
1#
1%
#336
0#
0%
#337
b101001 ,
1#
1%
#338
0#
0%
#339
b101010 ,
1#
1%
#340
0#
0%
#341
b101011 ,
1#
1%
#342
0#
0%
#343
b101100 ,
1#
1%
#344
0#
0%
#345
b101101 ,
1#
1%
#346
0#
0%
#347
b101110 ,
1#
1%
#348
0#
0%
#349
b101111 ,
1#
1%
#350
0#
0%
#351
b110000 ,
1#
1%
#352
0#
0%
#353
b110001 ,
1#
1%
#354
0#
0%
#355
b110010 ,
1#
1%
#356
0#
0%
#357
b110011 ,
1#
1%
#358
0#
0%
#359
b110100 ,
1#
1%
#360
0#
0%
#361
b110101 ,
1#
1%
#362
0#
0%
#363
b110110 ,
1#
1%
#364
0#
0%
#365
b110111 ,
1#
1%
#366
0#
0%
#367
b111000 ,
1#
1%
#368
0#
0%
#369
b111001 ,
1#
1%
#370
0#
0%
#371
b111010 ,
1#
1%
#372
0#
0%
#373
b111011 ,
1#
1%
#374
0#
0%
#375
b111100 ,
1#
1%
#376
0#
0%
#377
b111101 ,
1#
1%
#378
0#
0%
#379
b111110 ,
1#
1%
#380
0#
0%
#381
b111111 ,
1#
1%
#382
0#
0%
#383
b1000000 ,
1#
1%
#384
0#
0%
#385
b1000001 ,
1#
1%
#386
0#
0%
#387
b1000010 ,
1#
1%
#388
0#
0%
#389
b1000011 ,
1#
1%
#390
0#
0%
#391
b1000100 ,
1#
1%
#392
0#
0%
#393
b1000101 ,
1#
1%
#394
0#
0%
#395
b1000110 ,
1#
1%
#396
0#
0%
#397
b1000111 ,
1#
1%
#398
0#
0%
#399
b1001000 ,
1#
1%
#400
0#
0%
#401
b1001001 ,
1#
1%
#402
0#
0%
#403
b1001010 ,
1#
1%
#404
0#
0%
#405
b1001011 ,
1#
1%
#406
0#
0%
#407
b1001100 ,
1#
1%
#408
0#
0%
#409
b1001101 ,
1#
1%
#410
0#
0%
#411
b1001110 ,
1#
1%
#412
0#
0%
#413
b1001111 ,
1#
1%
#414
0#
0%
#415
b1010000 ,
1#
1%
#416
0#
0%
#417
b1010001 ,
1#
1%
#418
0#
0%
#419
b1010010 ,
1#
1%
#420
0#
0%
#421
b1010011 ,
1#
1%
#422
0#
0%
#423
b1010100 ,
1#
1%
#424
0#
0%
#425
b1010101 ,
1#
1%
#426
0#
0%
#427
b1010110 ,
1#
1%
#428
0#
0%
#429
b1010111 ,
1#
1%
#430
0#
0%
#431
b1011000 ,
1#
1%
#432
0#
0%
#433
b1011001 ,
1#
1%
#434
0#
0%
#435
b1011010 ,
1#
1%
#436
0#
0%
#437
b1011011 ,
1#
1%
#438
0#
0%
#439
b1011100 ,
1#
1%
#440
0#
0%
#441
b1011101 ,
1#
1%
#442
0#
0%
#443
b1011110 ,
1#
1%
#444
0#
0%
#445
b1011111 ,
1#
1%
#446
0#
0%
#447
b1100000 ,
1#
1%
#448
0#
0%
#449
b1100001 ,
1#
1%
#450
0#
0%
#451
b1100010 ,
1#
1%
#452
0#
0%
#453
b1100011 ,
1#
1%
#454
0#
0%
#455
b1100100 ,
1#
1%
#456
0#
0%
#457
b1100101 ,
1#
1%
#458
0#
0%
#459
b1100110 ,
1#
1%
#460
0#
0%
#461
b1100111 ,
1#
1%
#462
0#
0%
#463
b1101000 ,
1#
1%
#464
0#
0%
#465
b1101001 ,
1#
1%
#466
0#
0%
#467
b1101010 ,
1#
1%
#468
0#
0%
#469
b1101011 ,
1#
1%
#470
0#
0%
#471
b1101100 ,
1#
1%
#472
0#
0%
#473
b1101101 ,
1#
1%
#474
0#
0%
#475
b1101110 ,
1#
1%
#476
0#
0%
#477
b1101111 ,
1#
1%
#478
0#
0%
#479
b1110000 ,
1#
1%
#480
0#
0%
#481
b1110001 ,
1#
1%
#482
0#
0%
#483
b1110010 ,
1#
1%
#484
0#
0%
#485
b1110011 ,
1#
1%
#486
0#
0%
#487
b1110100 ,
1#
1%
#488
0#
0%
#489
b1110101 ,
1#
1%
#490
0#
0%
#491
b1110110 ,
1#
1%
#492
0#
0%
#493
b1110111 ,
1#
1%
#494
0#
0%
#495
b1111000 ,
1#
1%
#496
0#
0%
#497
b1111001 ,
1#
1%
#498
0#
0%
#499
b1111010 ,
1#
1%
#500
0#
0%
#501
b1111011 ,
1#
1%
#502
0#
0%
#503
b1111100 ,
1#
1%
#504
0#
0%
#505
b1111101 ,
1#
1%
#506
0#
0%
#507
b1111110 ,
1#
1%
#508
0#
0%
#509
b1111111 ,
1#
1%
#510
0#
0%
#511
b0 ,
0$
1#
1%
#512
b111111111111111 -
0#
0%
0'
#513
b1 ,
1"
1#
1%
#514
b1111111111111110 -
0"
0#
0%
#515
b10 ,
1"
1#
1%
#516
b1111111111111100 -
1!
0"
0#
0%
#517
b11 ,
1"
1#
1%
#518
b1111111111111000 -
0"
0#
0%
#519
b100 ,
1"
1#
1%
#520
b1111111111110000 -
0"
0#
0%
#521
b101 ,
1"
1#
1%
#522
b1111111111100000 -
0"
0#
0%
#523
b110 ,
1"
1#
1%
#524
b1111111111000000 -
0"
0#
0%
#525
b111 ,
1"
1#
1%
#526
b1111111110000000 -
0"
0#
0%
#527
b1000 ,
1"
1#
1%
#528
b1111111100000000 -
0"
0#
0%
#529
b1001 ,
1"
1#
1%
#530
b1111111000000000 -
0"
0#
0%
#531
b1010 ,
1"
1#
1%
#532
b1111110000000000 -
0"
0#
0%
#533
b1011 ,
1"
1#
1%
#534
b1111100000000000 -
0"
0#
0%
#535
b1100 ,
1"
1#
1%
#536
b1111000000000000 -
0"
0#
0%
#537
b1101 ,
1"
1#
1%
#538
b1110000000000000 -
0"
0#
0%
#539
b1110 ,
1"
1#
1%
#540
b1100000000000000 -
0"
0#
0%
#541
b1111 ,
1"
1#
1%
#542
b1000000000000000 -
0"
0#
0%
#543
b10000 ,
1"
1#
1%
#544
b0 -
0"
0#
0%
#545
b10001 ,
1"
1#
1%
#546
0!
0"
0#
0%
#547
b10010 ,
1"
1#
1%
#548
0"
0#
0%
#549
b10011 ,
1"
1#
1%
#550
0"
0#
0%
#551
b10100 ,
1"
1#
1%
#552
0"
0#
0%
#553
b10101 ,
1"
1#
1%
#554
0"
0#
0%
#555
b10110 ,
1"
1#
1%
#556
0"
0#
0%
#557
b10111 ,
1"
1#
1%
#558
0"
0#
0%
#559
b11000 ,
1"
1#
1%
#560
0"
0#
0%
#561
b11001 ,
1"
1#
1%
#562
0"
0#
0%
#563
b11010 ,
1"
1#
1%
#564
0"
0#
0%
#565
b11011 ,
1"
1#
1%
#566
0"
0#
0%
#567
b11100 ,
1"
1#
1%
#568
0"
0#
0%
#569
b11101 ,
1"
1#
1%
#570
0"
0#
0%
#571
b11110 ,
1"
1#
1%
#572
0"
0#
0%
#573
b11111 ,
1"
1#
1%
#574
0"
0#
0%
#575
b100000 ,
1"
1#
1%
#576
0"
0#
0%
#577
b100001 ,
1"
1#
1%
#578
0"
0#
0%
#579
b100010 ,
1"
1#
1%
#580
0"
0#
0%
#581
b100011 ,
1"
1#
1%
#582
0"
0#
0%
#583
b100100 ,
1"
1#
1%
#584
0"
0#
0%
#585
b100101 ,
1"
1#
1%
#586
0"
0#
0%
#587
b100110 ,
1"
1#
1%
#588
0"
0#
0%
#589
b100111 ,
1"
1#
1%
#590
0"
0#
0%
#591
b101000 ,
1"
1#
1%
#592
0"
0#
0%
#593
b101001 ,
1"
1#
1%
#594
0"
0#
0%
#595
b101010 ,
1"
1#
1%
#596
0"
0#
0%
#597
b101011 ,
1"
1#
1%
#598
0"
0#
0%
#599
b101100 ,
1"
1#
1%
#600
0"
0#
0%
#601
b101101 ,
1"
1#
1%
#602
0"
0#
0%
#603
b101110 ,
1"
1#
1%
#604
0"
0#
0%
#605
b101111 ,
1"
1#
1%
#606
0"
0#
0%
#607
b110000 ,
1"
1#
1%
#608
0"
0#
0%
#609
b110001 ,
1"
1#
1%
#610
0"
0#
0%
#611
b110010 ,
1"
1#
1%
#612
0"
0#
0%
#613
b110011 ,
1"
1#
1%
#614
0"
0#
0%
#615
b110100 ,
1"
1#
1%
#616
0"
0#
0%
#617
b110101 ,
1"
1#
1%
#618
0"
0#
0%
#619
b110110 ,
1"
1#
1%
#620
0"
0#
0%
#621
b110111 ,
1"
1#
1%
#622
0"
0#
0%
#623
b111000 ,
1"
1#
1%
#624
0"
0#
0%
#625
b111001 ,
1"
1#
1%
#626
0"
0#
0%
#627
b111010 ,
1"
1#
1%
#628
0"
0#
0%
#629
b111011 ,
1"
1#
1%
#630
0"
0#
0%
#631
b111100 ,
1"
1#
1%
#632
0"
0#
0%
#633
b111101 ,
1"
1#
1%
#634
0"
0#
0%
#635
b111110 ,
1"
1#
1%
#636
0"
0#
0%
#637
b111111 ,
1"
1#
1%
#638
0"
0#
0%
#639
b1000000 ,
1"
1#
1%
#640
0"
0#
0%
#641
b1000001 ,
1"
1#
1%
#642
0"
0#
0%
#643
b1000010 ,
1"
1#
1%
#644
0"
0#
0%
#645
b1000011 ,
1"
1#
1%
#646
0"
0#
0%
#647
b1000100 ,
1"
1#
1%
#648
0"
0#
0%
#649
b1000101 ,
1"
1#
1%
#650
0"
0#
0%
#651
b1000110 ,
1"
1#
1%
#652
0"
0#
0%
#653
b1000111 ,
1"
1#
1%
#654
0"
0#
0%
#655
b1001000 ,
1"
1#
1%
#656
0"
0#
0%
#657
b1001001 ,
1"
1#
1%
#658
0"
0#
0%
#659
b1001010 ,
1"
1#
1%
#660
0"
0#
0%
#661
b1001011 ,
1"
1#
1%
#662
0"
0#
0%
#663
b1001100 ,
1"
1#
1%
#664
0"
0#
0%
#665
b1001101 ,
1"
1#
1%
#666
0"
0#
0%
#667
b1001110 ,
1"
1#
1%
#668
0"
0#
0%
#669
b1001111 ,
1"
1#
1%
#670
0"
0#
0%
#671
b1010000 ,
1"
1#
1%
#672
0"
0#
0%
#673
b1010001 ,
1"
1#
1%
#674
0"
0#
0%
#675
b1010010 ,
1"
1#
1%
#676
0"
0#
0%
#677
b1010011 ,
1"
1#
1%
#678
0"
0#
0%
#679
b1010100 ,
1"
1#
1%
#680
0"
0#
0%
#681
b1010101 ,
1"
1#
1%
#682
0"
0#
0%
#683
b1010110 ,
1"
1#
1%
#684
0"
0#
0%
#685
b1010111 ,
1"
1#
1%
#686
0"
0#
0%
#687
b1011000 ,
1"
1#
1%
#688
0"
0#
0%
#689
b1011001 ,
1"
1#
1%
#690
0"
0#
0%
#691
b1011010 ,
1"
1#
1%
#692
0"
0#
0%
#693
b1011011 ,
1"
1#
1%
#694
0"
0#
0%
#695
b1011100 ,
1"
1#
1%
#696
0"
0#
0%
#697
b1011101 ,
1"
1#
1%
#698
0"
0#
0%
#699
b1011110 ,
1"
1#
1%
#700
0"
0#
0%
#701
b1011111 ,
1"
1#
1%
#702
0"
0#
0%
#703
b1100000 ,
1"
1#
1%
#704
0"
0#
0%
#705
b1100001 ,
1"
1#
1%
#706
0"
0#
0%
#707
b1100010 ,
1"
1#
1%
#708
0"
0#
0%
#709
b1100011 ,
1"
1#
1%
#710
0"
0#
0%
#711
b1100100 ,
1"
1#
1%
#712
0"
0#
0%
#713
b1100101 ,
1"
1#
1%
#714
0"
0#
0%
#715
b1100110 ,
1"
1#
1%
#716
0"
0#
0%
#717
b1100111 ,
1"
1#
1%
#718
0"
0#
0%
#719
b1101000 ,
1"
1#
1%
#720
0"
0#
0%
#721
b1101001 ,
1"
1#
1%
#722
0"
0#
0%
#723
b1101010 ,
1"
1#
1%
#724
0"
0#
0%
#725
b1101011 ,
1"
1#
1%
#726
0"
0#
0%
#727
b1101100 ,
1"
1#
1%
#728
0"
0#
0%
#729
b1101101 ,
1"
1#
1%
#730
0"
0#
0%
#731
b1101110 ,
1"
1#
1%
#732
0"
0#
0%
#733
b1101111 ,
1"
1#
1%
#734
0"
0#
0%
#735
b1110000 ,
1"
1#
1%
#736
0"
0#
0%
#737
b1110001 ,
1"
1#
1%
#738
0"
0#
0%
#739
b1110010 ,
1"
1#
1%
#740
0"
0#
0%
#741
b1110011 ,
1"
1#
1%
#742
0"
0#
0%
#743
b1110100 ,
1"
1#
1%
#744
0"
0#
0%
#745
b1110101 ,
1"
1#
1%
#746
0"
0#
0%
#747
b1110110 ,
1"
1#
1%
#748
0"
0#
0%
#749
b1110111 ,
1"
1#
1%
#750
0"
0#
0%
#751
b1111000 ,
1"
1#
1%
#752
0"
0#
0%
#753
b1111001 ,
1"
1#
1%
#754
0"
0#
0%
#755
b1111010 ,
1"
1#
1%
#756
0"
0#
0%
#757
b1111011 ,
1"
1#
1%
#758
0"
0#
0%
#759
b1111100 ,
1"
1#
1%
#760
0"
0#
0%
#761
b1111101 ,
1"
1#
1%
#762
0"
0#
0%
#763
b1111110 ,
1"
1#
1%
#764
0"
0#
0%
#765
b1111111 ,
1"
1#
1%
#766
0"
0#
0%
#767
b1 /
b0 ,
1$
1"
1#
1%
#768
b111111111111111 -
0"
0#
0%
#769
b1 ,
1"
1#
1%
#770
b1111111111111110 -
0"
0#
0%
#771
b10 ,
1"
1#
1%
#772
b1111111111111100 -
1!
0"
0#
0%
#773
b11 ,
1"
1#
1%
#774
b1111111111111000 -
0"
0#
0%
#775
b100 ,
1"
1#
1%
#776
b1111111111110000 -
0"
0#
0%
#777
b101 ,
1"
1#
1%
#778
b1111111111100000 -
0"
0#
0%
#779
b110 ,
1"
1#
1%
#780
b1111111111000000 -
0"
0#
0%
#781
b111 ,
1"
1#
1%
#782
b1111111110000000 -
0"
0#
0%
#783
b1000 ,
1"
1#
1%
#784
b1111111100000000 -
0"
0#
0%
#785
b1001 ,
1"
1#
1%
#786
b1111111000000000 -
0"
0#
0%
#787
b1010 ,
1"
1#
1%
#788
b1111110000000000 -
0"
0#
0%
#789
b1011 ,
1"
1#
1%
#790
b1111100000000000 -
0"
0#
0%
#791
b1100 ,
1"
1#
1%
#792
b1111000000000000 -
0"
0#
0%
#793
b1101 ,
1"
1#
1%
#794
b1110000000000000 -
0"
0#
0%
#795
b1110 ,
1"
1#
1%
#796
b1100000000000000 -
0"
0#
0%
#797
b1111 ,
1"
1#
1%
#798
b1000000000000000 -
0"
0#
0%
#799
b10000 ,
1"
1#
1%
#800
b0 -
0"
0#
0%
#801
b10001 ,
1"
1#
1%
#802
0!
0"
0#
0%
#803
b10010 ,
1"
1#
1%
#804
0"
0#
0%
#805
b10011 ,
1"
1#
1%
#806
0"
0#
0%
#807
b10100 ,
1"
1#
1%
#808
0"
0#
0%
#809
b10101 ,
1"
1#
1%
#810
0"
0#
0%
#811
b10110 ,
1"
1#
1%
#812
0"
0#
0%
#813
b10111 ,
1"
1#
1%
#814
0"
0#
0%
#815
b11000 ,
1"
1#
1%
#816
0"
0#
0%
#817
b11001 ,
1"
1#
1%
#818
0"
0#
0%
#819
b11010 ,
1"
1#
1%
#820
0"
0#
0%
#821
b11011 ,
1"
1#
1%
#822
0"
0#
0%
#823
b11100 ,
1"
1#
1%
#824
0"
0#
0%
#825
b11101 ,
1"
1#
1%
#826
0"
0#
0%
#827
b11110 ,
1"
1#
1%
#828
0"
0#
0%
#829
b11111 ,
1"
1#
1%
#830
0"
0#
0%
#831
b100000 ,
1"
1#
1%
#832
0"
0#
0%
#833
b100001 ,
1"
1#
1%
#834
0"
0#
0%
#835
b100010 ,
1"
1#
1%
#836
0"
0#
0%
#837
b100011 ,
1"
1#
1%
#838
0"
0#
0%
#839
b100100 ,
1"
1#
1%
#840
0"
0#
0%
#841
b100101 ,
1"
1#
1%
#842
0"
0#
0%
#843
b100110 ,
1"
1#
1%
#844
0"
0#
0%
#845
b100111 ,
1"
1#
1%
#846
0"
0#
0%
#847
b101000 ,
1"
1#
1%
#848
0"
0#
0%
#849
b101001 ,
1"
1#
1%
#850
0"
0#
0%
#851
b101010 ,
1"
1#
1%
#852
0"
0#
0%
#853
b101011 ,
1"
1#
1%
#854
0"
0#
0%
#855
b101100 ,
1"
1#
1%
#856
0"
0#
0%
#857
b101101 ,
1"
1#
1%
#858
0"
0#
0%
#859
b101110 ,
1"
1#
1%
#860
0"
0#
0%
#861
b101111 ,
1"
1#
1%
#862
0"
0#
0%
#863
b110000 ,
1"
1#
1%
#864
0"
0#
0%
#865
b110001 ,
1"
1#
1%
#866
0"
0#
0%
#867
b110010 ,
1"
1#
1%
#868
0"
0#
0%
#869
b110011 ,
1"
1#
1%
#870
0"
0#
0%
#871
b110100 ,
1"
1#
1%
#872
0"
0#
0%
#873
b110101 ,
1"
1#
1%
#874
0"
0#
0%
#875
b110110 ,
1"
1#
1%
#876
0"
0#
0%
#877
b110111 ,
1"
1#
1%
#878
0"
0#
0%
#879
b111000 ,
1"
1#
1%
#880
0"
0#
0%
#881
b111001 ,
1"
1#
1%
#882
0"
0#
0%
#883
b111010 ,
1"
1#
1%
#884
0"
0#
0%
#885
b111011 ,
1"
1#
1%
#886
0"
0#
0%
#887
b111100 ,
1"
1#
1%
#888
0"
0#
0%
#889
b111101 ,
1"
1#
1%
#890
0"
0#
0%
#891
b111110 ,
1"
1#
1%
#892
0"
0#
0%
#893
b111111 ,
1"
1#
1%
#894
0"
0#
0%
#895
b1000000 ,
1"
1#
1%
#896
0"
0#
0%
#897
b1000001 ,
1"
1#
1%
#898
0"
0#
0%
#899
b1000010 ,
1"
1#
1%
#900
0"
0#
0%
#901
b1000011 ,
1"
1#
1%
#902
0"
0#
0%
#903
b1000100 ,
1"
1#
1%
#904
0"
0#
0%
#905
b1000101 ,
1"
1#
1%
#906
0"
0#
0%
#907
b1000110 ,
1"
1#
1%
#908
0"
0#
0%
#909
b1000111 ,
1"
1#
1%
#910
0"
0#
0%
#911
b1001000 ,
1"
1#
1%
#912
0"
0#
0%
#913
b1001001 ,
1"
1#
1%
#914
0"
0#
0%
#915
b1001010 ,
1"
1#
1%
#916
0"
0#
0%
#917
b1001011 ,
1"
1#
1%
#918
0"
0#
0%
#919
b1001100 ,
1"
1#
1%
#920
0"
0#
0%
#921
b1001101 ,
1"
1#
1%
#922
0"
0#
0%
#923
b1001110 ,
1"
1#
1%
#924
0"
0#
0%
#925
b1001111 ,
1"
1#
1%
#926
0"
0#
0%
#927
b1010000 ,
1"
1#
1%
#928
0"
0#
0%
#929
b1010001 ,
1"
1#
1%
#930
0"
0#
0%
#931
b1010010 ,
1"
1#
1%
#932
0"
0#
0%
#933
b1010011 ,
1"
1#
1%
#934
0"
0#
0%
#935
b1010100 ,
1"
1#
1%
#936
0"
0#
0%
#937
b1010101 ,
1"
1#
1%
#938
0"
0#
0%
#939
b1010110 ,
1"
1#
1%
#940
0"
0#
0%
#941
b1010111 ,
1"
1#
1%
#942
0"
0#
0%
#943
b1011000 ,
1"
1#
1%
#944
0"
0#
0%
#945
b1011001 ,
1"
1#
1%
#946
0"
0#
0%
#947
b1011010 ,
1"
1#
1%
#948
0"
0#
0%
#949
b1011011 ,
1"
1#
1%
#950
0"
0#
0%
#951
b1011100 ,
1"
1#
1%
#952
0"
0#
0%
#953
b1011101 ,
1"
1#
1%
#954
0"
0#
0%
#955
b1011110 ,
1"
1#
1%
#956
0"
0#
0%
#957
b1011111 ,
1"
1#
1%
#958
0"
0#
0%
#959
b1100000 ,
1"
1#
1%
#960
0"
0#
0%
#961
b1100001 ,
1"
1#
1%
#962
0"
0#
0%
#963
b1100010 ,
1"
1#
1%
#964
0"
0#
0%
#965
b1100011 ,
1"
1#
1%
#966
0"
0#
0%
#967
b1100100 ,
1"
1#
1%
#968
0"
0#
0%
#969
b1100101 ,
1"
1#
1%
#970
0"
0#
0%
#971
b1100110 ,
1"
1#
1%
#972
0"
0#
0%
#973
b1100111 ,
1"
1#
1%
#974
0"
0#
0%
#975
b1101000 ,
1"
1#
1%
#976
0"
0#
0%
#977
b1101001 ,
1"
1#
1%
#978
0"
0#
0%
#979
b1101010 ,
1"
1#
1%
#980
0"
0#
0%
#981
b1101011 ,
1"
1#
1%
#982
0"
0#
0%
#983
b1101100 ,
1"
1#
1%
#984
0"
0#
0%
#985
b1101101 ,
1"
1#
1%
#986
0"
0#
0%
